Project1
…
merged %>% arrange(desc(Confirmed))

## # A tibble: 210 x 6
##    cityEnglishName province_deadCo… Province Confirmed city_confirmedC…
##    <fct>                      <int> <chr>        <int>            <int>
##  1 Enshi Tujia an…             2871 Hubei        67332              252
##  2 Ezhou                       2871 Hubei        67332             1392
##  3 Huanggang                   2871 Hubei        67332             2907
##  4 Huangshi                    2871 Hubei        67332             1014
##  5 Jingmen                     2871 Hubei        67332              928
##  6 Jingzhou                    2871 Hubei        67332             1580
##  7 Qianjiang                   2871 Hubei        67332              198
##  8 Shennongjia                 2871 Hubei        67332               11
##  9 Shiyan                      2871 Hubei        67332              672
## 10 Suizhou                     2871 Hubei        67332             1307
## # … with 200 more rows, and 1 more variable: city_deadCount <int>

merged %>% select(-c(1:4))

## # A tibble: 210 x 2
##    city_confirmedCount city_deadCount
##                  <int>          <int>
##  1                  83              0
##  2                 160              5
##  3                 108              0
##  4                  17              0
##  5                  13              0
##  6                 155              0
##  7                 174              1
##  8                  27              0
##  9                  27              0
## 10                   9              0
## # … with 200 more rows

merged %>% mutate(city_sick = city_confirmedCount - city_deadCount)

## # A tibble: 210 x 7
##    cityEnglishName province_deadCo… Province Confirmed city_confirmedC…
##    <fct>                      <int> <chr>        <int>            <int>
##  1 Anqing                         6 Anhui          990               83
##  2 Bengbu                         6 Anhui          990              160
##  3 Bozhou                         6 Anhui          990              108
##  4 Chizhou                        6 Anhui          990               17
##  5 Chuzhou                        6 Anhui          990               13
##  6 Fuyang                         6 Anhui          990              155
##  7 Hefei                          6 Anhui          990              174
##  8 Huaibei                        6 Anhui          990               27
##  9 Huainan                        6 Anhui          990               27
## 10 Huangshan                      6 Anhui          990                9
## # … with 200 more rows, and 2 more variables: city_deadCount <int>,
## #   city_sick <int>

merged %>% group_by(Province)

## # A tibble: 210 x 6
## # Groups:   Province [14]
##    cityEnglishName province_deadCo… Province Confirmed city_confirmedC…
##    <fct>                      <int> <chr>        <int>            <int>
##  1 Anqing                         6 Anhui          990               83
##  2 Bengbu                         6 Anhui          990              160
##  3 Bozhou                         6 Anhui          990              108
##  4 Chizhou                        6 Anhui          990               17
##  5 Chuzhou                        6 Anhui          990               13
##  6 Fuyang                         6 Anhui          990              155
##  7 Hefei                          6 Anhui          990              174
##  8 Huaibei                        6 Anhui          990               27
##  9 Huainan                        6 Anhui          990               27
## 10 Huangshan                      6 Anhui          990                9
## # … with 200 more rows, and 1 more variable: city_deadCount <int>
…
merged %>% group_by(cityEnglishName) %>% summarize(mean_city_sick = mean(city_confirmedCount - 
    city_deadCount, na.rm = T))

## # A tibble: 210 x 2
##    cityEnglishName                       mean_city_sick
##    <fct>                                          <dbl>
##  1 ""                                                 1
##  2 Anqing                                            83
##  3 Anshun                                             4
##  4 Anyang                                            53
##  5 Baise                                              3
##  6 Baiyin                                             4
##  7 Banan District                                     6
##  8 Baoding                                           32
##  9 Baoting Li and Miao Autonomous County              3
## 10 Beihai                                            43
## # … with 200 more rows
…
merged %>% group_by(cityEnglishName) %>% summarize(Other_City_Death = province_deadCount - 
    city_deadCount)

## # A tibble: 210 x 2
##    cityEnglishName                       Other_City_Death
##    <fct>                                            <int>
##  1 ""                                                   6
##  2 Anqing                                               6
##  3 Anshun                                               2
##  4 Anyang                                              22
##  5 Baise                                                2
##  6 Baiyin                                               2
##  7 Banan District                                       6
##  8 Baoding                                              6
##  9 Baoting Li and Miao Autonomous County                5
## 10 Beihai                                               1
## # … with 200 more rows

merged %>% group_by(cityEnglishName) %>% summarize(Other_City_confirmed = Confirmed - 
    city_confirmedCount)

## # A tibble: 210 x 2
##    cityEnglishName                       Other_City_confirmed
##    <fct>                                                <int>
##  1 ""                                                     575
##  2 Anqing                                                 907
##  3 Anshun                                                 142
##  4 Anyang                                                1219
##  5 Baise                                                  249
##  6 Baiyin                                                  87
##  7 Banan District                                         570
##  8 Baoding                                                286
##  9 Baoting Li and Miao Autonomous County                  165
## 10 Beihai                                                 208
## # … with 200 more rows
…
